{
    "/app/js/assets.js": "/app/js/assets.js?id=372c4f398af24dca6bc9",
    "/app/css/assets.css": "/app/css/assets.css?id=2b9998122157dd7aca40",
    "/front/css/main.css": "/front/css/main.css?id=15555218e85e22132e10",
    "/app/js/vendor.js": "/app/js/vendor.js?id=bf89484563d86839aa76",
    "/front/js/vendor.js": "/front/js/vendor.js?id=86faa88efca0c27ccd25",
    "/front/css/vendor.css": "/front/css/vendor.css?id=810b1e937c0d4c9d95ff"
}